…
I wanted to see how many only had one.


```r
cabinet_turnover %>% 
  count(position)
```

```
## # A tibble: 28 x 2
##    position                                          n
##    <fct>                                         <int>
##  1 Attorney General                                 14
##  2 Chief of Staff                                   21
##  3 CIA Director                                      6
##  4 Director of Central Intelligence                  9
##  5 Director of Central Intelligence/CIA Director     1
##  6 Director of National Intelligence                 5
##  7 EPA Administrator                                12
##  8 OMB Director                                     19
##  9 SBA Administrator                                14
## 10 Secretary of Agriculture                         12
## # ... with 18 more rows
```
…
*length_proportion* is the proportion of *length* to the total number of days an appointee could have served. For example...



```r
length_prop_dataset <- jointdataset %>% 
  mutate(length_proportion = length/(admin_total_days - (days_into_term_start)))

length_prop_dataset  %>% 
  select("president", "appointee", "admin_total_days", "length_proportion")
```

```
## # A tibble: 312 x 4
##    president appointee             admin_total_days length_proportion
##    <fct>     <chr>                            <dbl>             <dbl>
##  1 Carter    Bert Lance                        1460             0.168
##  2 Carter    Brock Adams                       1460             0.624
##  3 Carter    Joseph Califano Jr.               1460             0.633
##  4 Carter    Patricia Harris                   1460             0.633
##  5 Carter    W. Michael Blumenthal             1460             0.634
##  6 Carter    Griffin Bell                      1460             0.641
##  7 Carter    Robert Strauss                    1460             0.626
##  8 Carter    James Schlesinger                 1460             0.592
##  9 Carter    Andrew Young                      1460             0.667
## 10 Carter    Juanita Kreps                     1460             0.694
## # ... with 302 more rows
```
…
```r
length_prop_dataset_specified <- jointdatasetspecified %>% 
  mutate(length_proportion = length/(admin_total_days - (days - length))) %>% 
  select("president", "position", "length_proportion")

length_prop_dataset_specified
```

```
## # A tibble: 88 x 3
##    president position                             length_proportion
##    <fct>     <fct>                                            <dbl>
##  1 Carter    Chief of Staff                                   0.598
##  2 Carter    Chief of Staff                                   1.01 
##  3 Carter    EPA Administrator                                1.00 
##  4 Carter    Secretary of Defense                             1.00 
##  5 Carter    Secretary of Education                           1.00 
##  6 Carter    Secretary of Labor                               1.00 
##  7 Reagan    Secretary of Health & Human Services             0.254
##  8 Reagan    EPA Administrator                                0.235
##  9 Reagan    Secretary of Education                           0.493
## 10 Reagan    EPA Administrator                                0.288
## # ... with 78 more rows
```
…
The estimate for the *days_into_start* coefficent, and the p-value, is 0.  This reinforces what we could see in the graph, that there is no relationship between *days_into_start* and *length_proportion*.  In other words, the length of an appointee's tenure does not depend on how far into the president's administration they started.  


```r
lm_president_position <- lm(length_proportion ~ president*position, data = length_prop_dataset_specified)

get_regression_table(lm_president_position)
```

```
## # A tibble: 42 x 7
##    term              estimate std_error statistic p_value lower_ci upper_ci
##    <chr>                <dbl>     <dbl>     <dbl>   <dbl>    <dbl>    <dbl>
##  1 intercept            0.789     0.2       3.94    0        0.384    1.20 
##  2 presidentBush 43     0.039     0.316     0.124   0.902   -0.601    0.68 
##  3 presidentCarter      0.014     0.316     0.045   0.965   -0.626    0.655
##  4 presidentClinton    -0.286     0.265    -1.08    0.287   -0.822    0.25 
##  5 presidentObama      -0.393     0.265    -1.48    0.146   -0.929    0.143
##  6 presidentReagan     -0.102     0.265    -0.384   0.703   -0.638    0.434
##  7 presidentTrump      -0.178     0.316    -0.561   0.578   -0.818    0.463
##  8 positionEPA Admi~    0.212     0.4       0.529   0.6     -0.598    1.02 
##  9 positionSecretar~    0.212     0.4       0.53    0.599   -0.598    1.02 
## 10 positionSecretar~    0.214     0.4       0.533   0.597   -0.597    1.02 
## # ... with 32 more rows
```
…
```r
set.seed(100)

r_squared <- length_prop_dataset %>% 
  rep_sample_n(size = 312, replace = FALSE, reps = 200) %>% 
  group_by(replicate) %>% 
  do(lm(length_proportion ~ sample(president), data = .) %>% glance()) %>% 
  select(replicate, r.squared)

r_squared
```

```
## # A tibble: 200 x 2
## # Groups:   replicate [200]
##    replicate r.squared
##        <int>     <dbl>
##  1         1   0.0223 
##  2         2   0.0122 
##  3         3   0.0145 
##  4         4   0.00892
##  5         5   0.0207 
##  6         6   0.00891
##  7         7   0.0113 
##  8         8   0.0486 
##  9         9   0.0649 
## 10        10   0.0113 
## # ... with 190 more rows
```
…
